%YAML 1.1
%TAG !u! tag:unity3d.com,2011:
--- !u!1001 &4496195328564559550
PrefabInstance:
  m_ObjectHideFlags: 0
  serializedVersion: 2
  m_Modification:
    m_TransformParent: {fileID: 0}
    m_Modifications:
    - target: {fileID: 500048369737572326, guid: 834b1935a762c034d808cc48fefadc34, type: 3}
      propertyPath: m_Name
      value: Tile_RoadCorner270
      objectReference: {fileID: 0}
    - target: {fileID: 2720676574903088625, guid: 834b1935a762c034d808cc48fefadc34, type: 3}
      propertyPath: m_LocalRotation.w
      value: -0.7071068
      objectReference: {fileID: 0}
    - target: {fileID: 2720676574903088625, guid: 834b1935a762c034d808cc48fefadc34, type: 3}
      propertyPath: m_LocalRotation.y
      value: 0.7071068
      objectReference: {fileID: 0}
    - target: {fileID: 2720676574903088625, guid: 834b1935a762c034d808cc48fefadc34, type: 3}
      propertyPath: m_LocalRotation.z
      value: -0
      objectReference: {fileID: 0}
    - target: {fileID: 2720676574903088625, guid: 834b1935a762c034d808cc48fefadc34, type: 3}
      propertyPath: m_LocalEulerAnglesHint.y
      value: 270
      objectReference: {fileID: 0}
    - target: {fileID: 3094730096039795305, guid: 834b1935a762c034d808cc48fefadc34, type: 3}
      propertyPath: m_RootOrder
      value: 0
      objectReference: {fileID: 0}
    - target: {fileID: 3094730096039795305, guid: 834b1935a762c034d808cc48fefadc34, type: 3}
      propertyPath: m_LocalPosition.x
      value: 0
      objectReference: {fileID: 0}
    - target: {fileID: 3094730096039795305, guid: 834b1935a762c034d808cc48fefadc34, type: 3}
      propertyPath: m_LocalPosition.y
      value: 0
      objectReference: {fileID: 0}
    - target: {fileID: 3094730096039795305, guid: 834b1935a762c034d808cc48fefadc34, type: 3}
      propertyPath: m_LocalPosition.z
      value: 0
      objectReference: {fileID: 0}
    - target: {fileID: 3094730096039795305, guid: 834b1935a762c034d808cc48fefadc34, type: 3}
      propertyPath: m_LocalRotation.w
      value: 1
      objectReference: {fileID: 0}
    - target: {fileID: 3094730096039795305, guid: 834b1935a762c034d808cc48fefadc34, type: 3}
      propertyPath: m_LocalRotation.x
      value: 0
      objectReference: {fileID: 0}
    - target: {fileID: 3094730096039795305, guid: 834b1935a762c034d808cc48fefadc34, type: 3}
      propertyPath: m_LocalRotation.y
      value: 0
      objectReference: {fileID: 0}
    - target: {fileID: 3094730096039795305, guid: 834b1935a762c034d808cc48fefadc34, type: 3}
      propertyPath: m_LocalRotation.z
      value: 0
      objectReference: {fileID: 0}
    - target: {fileID: 3094730096039795305, guid: 834b1935a762c034d808cc48fefadc34, type: 3}
      propertyPath: m_LocalEulerAnglesHint.x
      value: 0
      objectReference: {fileID: 0}
    - target: {fileID: 3094730096039795305, guid: 834b1935a762c034d808cc48fefadc34, type: 3}
      propertyPath: m_LocalEulerAnglesHint.y
      value: 0
      objectReference: {fileID: 0}
    - target: {fileID: 3094730096039795305, guid: 834b1935a762c034d808cc48fefadc34, type: 3}
      propertyPath: m_LocalEulerAnglesHint.z
      value: 0
      objectReference: {fileID: 0}
    m_RemovedComponents: []
  m_SourcePrefab: {fileID: 100100000, guid: 834b1935a762c034d808cc48fefadc34, type: 3}
