%YAML 1.1
%TAG !u! tag:unity3d.com,2011:
--- !u!1001 &4901519088090787625
PrefabInstance:
  m_ObjectHideFlags: 0
  serializedVersion: 2
  m_Modification:
    m_TransformParent: {fileID: 0}
    m_Modifications:
    - target: {fileID: 1228335915260442187, guid: c375519eccb71c2419533f4016c0be42, type: 3}
      propertyPath: m_LocalRotation.w
      value: 0.7071068
      objectReference: {fileID: 0}
    - target: {fileID: 1228335915260442187, guid: c375519eccb71c2419533f4016c0be42, type: 3}
      propertyPath: m_LocalRotation.x
      value: 0
      objectReference: {fileID: 0}
    - target: {fileID: 1228335915260442187, guid: c375519eccb71c2419533f4016c0be42, type: 3}
      propertyPath: m_LocalRotation.y
      value: 0.7071068
      objectReference: {fileID: 0}
    - target: {fileID: 1228335915260442187, guid: c375519eccb71c2419533f4016c0be42, type: 3}
      propertyPath: m_LocalRotation.z
      value: 0
      objectReference: {fileID: 0}
    - target: {fileID: 1228335915260442187, guid: c375519eccb71c2419533f4016c0be42, type: 3}
      propertyPath: m_LocalEulerAnglesHint.y
      value: 90
      objectReference: {fileID: 0}
    - target: {fileID: 2177654590328625619, guid: c375519eccb71c2419533f4016c0be42, type: 3}
      propertyPath: m_RootOrder
      value: 0
      objectReference: {fileID: 0}
    - target: {fileID: 2177654590328625619, guid: c375519eccb71c2419533f4016c0be42, type: 3}
      propertyPath: m_LocalPosition.x
      value: 0
      objectReference: {fileID: 0}
    - target: {fileID: 2177654590328625619, guid: c375519eccb71c2419533f4016c0be42, type: 3}
      propertyPath: m_LocalPosition.y
      value: 0
      objectReference: {fileID: 0}
    - target: {fileID: 2177654590328625619, guid: c375519eccb71c2419533f4016c0be42, type: 3}
      propertyPath: m_LocalPosition.z
      value: 0
      objectReference: {fileID: 0}
    - target: {fileID: 2177654590328625619, guid: c375519eccb71c2419533f4016c0be42, type: 3}
      propertyPath: m_LocalRotation.w
      value: 1
      objectReference: {fileID: 0}
    - target: {fileID: 2177654590328625619, guid: c375519eccb71c2419533f4016c0be42, type: 3}
      propertyPath: m_LocalRotation.x
      value: 0
      objectReference: {fileID: 0}
    - target: {fileID: 2177654590328625619, guid: c375519eccb71c2419533f4016c0be42, type: 3}
      propertyPath: m_LocalRotation.y
      value: 0
      objectReference: {fileID: 0}
    - target: {fileID: 2177654590328625619, guid: c375519eccb71c2419533f4016c0be42, type: 3}
      propertyPath: m_LocalRotation.z
      value: 0
      objectReference: {fileID: 0}
    - target: {fileID: 2177654590328625619, guid: c375519eccb71c2419533f4016c0be42, type: 3}
      propertyPath: m_LocalEulerAnglesHint.x
      value: 0
      objectReference: {fileID: 0}
    - target: {fileID: 2177654590328625619, guid: c375519eccb71c2419533f4016c0be42, type: 3}
      propertyPath: m_LocalEulerAnglesHint.y
      value: 0
      objectReference: {fileID: 0}
    - target: {fileID: 2177654590328625619, guid: c375519eccb71c2419533f4016c0be42, type: 3}
      propertyPath: m_LocalEulerAnglesHint.z
      value: 0
      objectReference: {fileID: 0}
    - target: {fileID: 3619384162082380892, guid: c375519eccb71c2419533f4016c0be42, type: 3}
      propertyPath: m_Name
      value: Tile_RoadCorner90
      objectReference: {fileID: 0}
    m_RemovedComponents: []
  m_SourcePrefab: {fileID: 100100000, guid: c375519eccb71c2419533f4016c0be42, type: 3}
